[youtube] ZoqHGpIQqxA: Downloading webpage
Crawling raw audio from youtube
[youtube] ZoqHGpIQqxA: Downloading video info webpage
[youtube] Downloading just video ZoqHGpIQqxA because of --no-playlist
[download] Destination: output/temp/MẮT BIẾC TRUYỆN AUDIO FULL_ NGUYỄN NHẬT ÁNH_ GIỌNG ĐỌC KIM QUYÊN #Matbiec #Victor_Vũ #Nguyennhatanh.NA
[K[download]   0.0% of 299.09MiB at Unknown speed ETA Unknown ETA[K[download]   0.0% of 299.09MiB at Unknown speed ETA Unknown ETA[K[download]   0.0% of 299.09MiB at Unknown speed ETA 00:44[K[download]   0.0% of 299.09MiB at  5.11MiB/s ETA 00:59[K[download]   0.0% of 299.09MiB at  4.41MiB/s ETA 01:08[K[download]   0.0% of 299.09MiB at  4.91MiB/s ETA 01:00[K[download]   0.0% of 299.09MiB at  4.41MiB/s ETA 01:07[K[download]   0.1% of 299.09MiB at  4.37MiB/s ETA 01:08[K[download]   0.2% of 299.09MiB at  4.91MiB/s ETA 01:00[K[download]   0.3% of 299.09MiB at  5.31MiB/s ETA 00:56[K[download]   0.7% of 299.09MiB at  5.42MiB/s ETA 00:54[K[download]   1.3% of 299.09MiB at  5.35MiB/s ETA 00:55[K[download]   2.7% of 299.09MiB at  5.17MiB/s ETA 00:56[K[download]   3.2% of 299.09MiB at  5.04MiB/s ETA 00:57[K[download]   3.2% of 299.09MiB at Unknown speed ETA Unknown ETA[K[download]   3.2% of 299.09MiB at Unknown speed ETA Unknown ETA[K[download]   3.2% of 299.09MiB at Unknown speed ETA Unknown ETA[K[download]   3.2% of 299.09MiB at  5.39MiB/s ETA 00:54[K[download]   3.2% of 299.09MiB at  3.00MiB/s ETA 01:36[K[download]   3.3% of 299.09MiB at  3.36MiB/s ETA 01:26[K[download]   3.3% of 299.09MiB at  4.08MiB/s ETA 01:11[K[download]   3.3% of 299.09MiB at  4.06MiB/s ETA 01:11[K[download]   3.4% of 299.09MiB at  3.50MiB/s ETA 01:22[K[download]   3.6% of 299.09MiB at  4.42MiB/s ETA 01:05[K[download]   3.9% of 299.09MiB at  4.71MiB/s ETA 01:01[K[download]   4.6% of 299.09MiB at  4.52MiB/s ETA 01:03[K[download]   5.9% of 299.09MiB at  4.40MiB/s ETA 01:03[K[download]   6.5% of 299.09MiB at  4.40MiB/s ETA 01:03[K[download]   6.5% of 299.09MiB at Unknown speed ETA Unknown ETA[K[download]   6.5% of 299.09MiB at Unknown speed ETA Unknown ETA[K[download]   6.5% of 299.09MiB at Unknown speed ETA Unknown ETA[K[download]   6.5% of 299.09MiB at  6.82MiB/s ETA 00:41[K[download]   6.5% of 299.09MiB at  4.48MiB/s ETA 01:02[K[download]   6.5% of 299.09MiB at  2.84MiB/s ETA 01:38[K[download]   6.5% of 299.09MiB at  3.39MiB/s ETA 01:22[K[download]   6.6% of 299.09MiB at  4.38MiB/s ETA 01:03[K[download]   6.7% of 299.09MiB at  4.89MiB/s ETA 00:57[K[download]   6.8% of 299.09MiB at  5.02MiB/s ETA 00:55[K[download]   7.2% of 299.09MiB at  4.63MiB/s ETA 00:59[K[download]   7.8% of 299.09MiB at  4.39MiB/s ETA 01:02[K[download]   9.2% of 299.09MiB at  4.38MiB/s ETA 01:02[K[download]   9.7% of 299.09MiB at  4.40MiB/s ETA 01:01[K[download]   9.7% of 299.09MiB at Unknown speed ETA Unknown ETA[K[download]   9.7% of 299.09MiB at Unknown speed ETA Unknown ETA[K[download]   9.7% of 299.09MiB at Unknown speed ETA Unknown ETA[K[download]   9.7% of 299.09MiB at 12.63MiB/s ETA 00:21[K[download]   9.7% of 299.09MiB at  5.30MiB/s ETA 00:51[K[download]   9.7% of 299.09MiB at  4.86MiB/s ETA 00:55[K[download]   9.7% of 299.09MiB at  5.78MiB/s ETA 00:46[K[download]   9.8% of 299.09MiB at  4.94MiB/s ETA 00:54[K[download]   9.8% of 299.09MiB at  5.24MiB/s ETA 00:51[K[download]  10.0% of 299.09MiB at  4.62MiB/s ETA 00:58[K[download]  10.3% of 299.09MiB at  4.48MiB/s ETA 00:59[K[download]  11.0% of 299.09MiB at  4.37MiB/s ETA 01:00[K[download]  12.3% of 299.09MiB at  4.32MiB/s ETA 01:00[K[download]  12.9% of 299.09MiB at  4.36MiB/s ETA 00:59[K[download]  12.9% of 299.09MiB at Unknown speed ETA Unknown ETA[K[download]  12.9% of 299.09MiB at Unknown speed ETA Unknown ETA[K[download]  12.9% of 299.09MiB at Unknown speed ETA Unknown ETA[K[download]  12.9% of 299.09MiB at  8.56MiB/s ETA 00:30[K[download]  13.0% of 299.09MiB at  4.32MiB/s ETA 01:00[K[download]  13.0% of 299.09MiB at  3.76MiB/s ETA 01:09[K[download]  13.0% of 299.09MiB at  5.19MiB/s ETA 00:50[K[download]  13.0% of 299.09MiB at  5.32MiB/s ETA 00:48[K[download]  13.1% of 299.09MiB at  5.39MiB/s ETA 00:48[K[download]  13.3% of 299.09MiB at  4.15MiB/s ETA 01:02[K[download]  13.6% of 299.09MiB at  4.15MiB/s ETA 01:02[K[download]  14.3% of 299.09MiB at  4.32MiB/s ETA 00:59[K[download]  15.6% of 299.09MiB at  4.37MiB/s ETA 00:57[K[download]  16.3% of 299.09MiB at  4.36MiB/s ETA 00:57[K[download]  16.3% of 299.09MiB at Unknown speed ETA Unknown ETA[K[download]  16.3% of 299.09MiB at Unknown speed ETA Unknown ETA[K[download]  16.3% of 299.09MiB at Unknown speed ETA Unknown ETA[K[download]  16.3% of 299.09MiB at  7.19MiB/s ETA 00:34[K[download]  16.3% of 299.09MiB at  3.98MiB/s ETA 01:03[K[download]  16.3% of 299.09MiB at  4.22MiB/s ETA 00:59[K[download]  16.3% of 299.09MiB at  4.03MiB/s ETA 01:02[K[download]  16.4% of 299.09MiB at  4.73MiB/s ETA 00:52[K[download]  16.4% of 299.09MiB at  3.92MiB/s ETA 01:03[K[download]  16.6% of 299.09MiB at  4.76MiB/s ETA 00:52[K[download]  16.9% of 299.09MiB at  4.58MiB/s ETA 00:54[K[download]  17.6% of 299.09MiB at  4.42MiB/s ETA 00:55[K[download]  19.0% of 299.09MiB at  4.07MiB/s ETA 00:59[K[download]  19.5% of 299.09MiB at  4.15MiB/s ETA 00:57[K[download]  19.5% of 299.09MiB at Unknown speed ETA Unknown ETA[K[download]  19.5% of 299.09MiB at Unknown speed ETA Unknown ETA[K[download]  19.5% of 299.09MiB at Unknown speed ETA Unknown ETA[K[download]  19.5% of 299.09MiB at  5.19MiB/s ETA 00:46[K[download]  19.6% of 299.09MiB at  4.12MiB/s ETA 00:58[K[download]  19.6% of 299.09MiB at  3.65MiB/s ETA 01:05[K[download]  19.6% of 299.09MiB at  4.58MiB/s ETA 00:52[K[download]  19.6% of 299.09MiB at  4.62MiB/s ETA 00:52[K[download]  19.7% of 299.09MiB at  4.34MiB/s ETA 00:55[K[download]  19.9% of 299.09MiB at  4.52MiB/s ETA 00:53[K[download]  20.2% of 299.09MiB at  4.50MiB/s ETA 00:53[K[download]  20.9% of 299.09MiB at  4.37MiB/s ETA 00:54[K[download]  22.2% of 299.09MiB at  4.39MiB/s ETA 00:53[K[download]  22.8% of 299.09MiB at  4.37MiB/s ETA 00:52[K[download]  22.8% of 299.09MiB at Unknown speed ETA Unknown ETA[K[download]  22.8% of 299.09MiB at Unknown speed ETA Unknown ETA[K[download]  22.8% of 299.09MiB at Unknown speed ETA Unknown ETA[K[download]  22.8% of 299.09MiB at  9.37MiB/s ETA 00:24[K[download]  22.8% of 299.09MiB at  4.06MiB/s ETA 00:57[K[download]  22.8% of 299.09MiB at  2.92MiB/s ETA 01:19[K[download]  22.8% of 299.09MiB at  3.31MiB/s ETA 01:09[K[download]  22.9% of 299.09MiB at  3.48MiB/s ETA 01:06[K[download]  23.0% of 299.09MiB at  3.49MiB/s ETA 01:06[K[download]  23.1% of 299.09MiB at  4.07MiB/s ETA 00:56[K[download]  23.5% of 299.09MiB at  4.19MiB/s ETA 00:54[K[download]  24.1% of 299.09MiB at  3.41MiB/s ETA 01:06[K[download]  25.1% of 299.09MiB at  3.32MiB/s ETA 01:07[K[download]  26.0% of 299.09MiB at  3.66MiB/s ETA 01:00[K[download]  26.0% of 299.09MiB at Unknown speed ETA Unknown ETA[K[download]  26.0% of 299.09MiB at Unknown speed ETA Unknown ETA[K[download]  26.0% of 299.09MiB at  6.55MiB/s ETA 00:34[K[download]  26.0% of 299.09MiB at  8.61MiB/s ETA 00:26[K[download]  26.0% of 299.09MiB at  4.89MiB/s ETA 00:45[K[download]  26.0% of 299.09MiB at  2.95MiB/s ETA 01:15[K[download]  26.0% of 299.09MiB at  4.54MiB/s ETA 00:48[K[download]  26.1% of 299.09MiB at  5.00MiB/s ETA 00:44[K[download]  26.2% of 299.09MiB at  4.94MiB/s ETA 00:44[K[download]  26.3% of 299.09MiB at  4.71MiB/s ETA 00:46[K[download]  26.7% of 299.09MiB at  4.78MiB/s ETA 00:45[K[download]  27.3% of 299.09MiB at  4.28MiB/s ETA 00:50[K[download]  28.6% of 299.09MiB at  4.29MiB/s ETA 00:49[K[download]  29.3% of 299.09MiB at  4.33MiB/s ETA 00:48[K[download]  29.3% of 299.09MiB at Unknown speed ETA Unknown ETA[K[download]  29.3% of 299.09MiB at Unknown speed ETA Unknown ETA[K[download]  29.3% of 299.09MiB at Unknown speed ETA Unknown ETA[K[download]  29.3% of 299.09MiB at Unknown speed ETA Unknown ETA[K[download]  29.3% of 299.09MiB at  3.66MiB/s ETA 00:57[K[download]  29.3% of 299.09MiB at  4.16MiB/s ETA 00:50[K[download]  29.3% of 299.09MiB at  3.54MiB/s ETA 00:59[K[download]  29.4% of 299.09MiB at  4.66MiB/s ETA 00:45[K[download]  29.5% of 299.09MiB at  5.26MiB/s ETA 00:40[K[download]  29.6% of 299.09MiB at  4.55MiB/s ETA 00:46[K[download]  30.0% of 299.09MiB at  4.47MiB/s ETA 00:46[K[download]  30.6% of 299.09MiB at  4.25MiB/s ETA 00:48[K[download]  32.0% of 299.09MiB at  4.13MiB/s ETA 00:49[K[download]  32.6% of 299.09MiB at  4.24MiB/s ETA 00:47[K[download]  32.6% of 299.09MiB at Unknown speed ETA Unknown ETA[K[download]  32.6% of 299.09MiB at Unknown speed ETA Unknown ETA[K[download]  32.6% of 299.09MiB at Unknown speed ETA Unknown ETA[K[download]  32.6% of 299.09MiB at  8.82MiB/s ETA 00:22[K[download]  32.6% of 299.09MiB at  2.84MiB/s ETA 01:10[K[download]  32.6% of 299.09MiB at  3.41MiB/s ETA 00:59[K[download]  32.7% of 299.09MiB at  3.42MiB/s ETA 00:58[K[download]  32.7% of 299.09MiB at  4.24MiB/s ETA 00:47[K[download]  32.8% of 299.09MiB at  4.91MiB/s ETA 00:40[K[download]  33.0% of 299.09MiB at  4.60MiB/s ETA 00:43[K[download]  33.3% of 299.09MiB at  4.54MiB/s ETA 00:43[K[download]  34.0% of 299.09MiB at  4.31MiB/s ETA 00:45[K[download]  35.3% of 299.09MiB at  4.30MiB/s ETA 00:45[K[download]  35.9% of 299.09MiB at  4.31MiB/s ETA 00:44[K[download]  35.9% of 299.09MiB at Unknown speed ETA Unknown ETA[K[download]  35.9% of 299.09MiB at Unknown speed ETA Unknown ETA[K[download]  35.9% of 299.09MiB at Unknown speed ETA Unknown ETA[K[download]  35.9% of 299.09MiB at  7.95MiB/s ETA 00:24[K[download]  35.9% of 299.09MiB at  4.99MiB/s ETA 00:38[K[download]  35.9% of 299.09MiB at  5.60MiB/s ETA 00:34[K[download]  35.9% of 299.09MiB at  4.16MiB/s ETA 00:46[K[download]  36.0% of 299.09MiB at  5.22MiB/s ETA 00:36[K[download]  36.1% of 299.09MiB at  4.86MiB/s ETA 00:39[K[download]  36.2% of 299.09MiB at  4.50MiB/s ETA 00:42[K[download]  36.6% of 299.09MiB at  4.73MiB/s ETA 00:40[K[download]  37.2% of 299.09MiB at  4.32MiB/s ETA 00:43[K[download]  38.6% of 299.09MiB at  4.38MiB/s ETA 00:41[K[download]  39.2% of 299.09MiB at  4.39MiB/s ETA 00:41[K[download]  39.2% of 299.09MiB at Unknown speed ETA Unknown ETA[K[download]  39.2% of 299.09MiB at 769.36KiB/s ETA 04:02[K[download]  39.2% of 299.09MiB at  1.65MiB/s ETA 01:50[K[download]  39.2% of 299.09MiB at  3.32MiB/s ETA 00:54[K[download]  39.2% of 299.09MiB at  3.53MiB/s ETA 00:51[K[download]  39.2% of 299.09MiB at  4.28MiB/s ETA 00:42[K[download]  39.2% of 299.09MiB at  4.90MiB/s ETA 00:37[K[download]  39.3% of 299.09MiB at  4.66MiB/s ETA 00:39[K[download]  39.4% of 299.09MiB at  4.20MiB/s ETA 00:43[K[download]  39.5% of 299.09MiB at  5.05MiB/s ETA 00:35[K[download]  39.9% of 299.09MiB at  4.46MiB/s ETA 00:40[K[download]  40.5% of 299.09MiB at  3.83MiB/s ETA 00:46[K[download]  41.6% of 299.09MiB at  4.07MiB/s ETA 00:42[K[download]  42.4% of 299.09MiB at  4.14MiB/s ETA 00:41[K[download]  42.4% of 299.09MiB at Unknown speed ETA Unknown ETA[K[download]  42.4% of 299.09MiB at Unknown speed ETA Unknown ETA[K[download]  42.4% of 299.09MiB at Unknown speed ETA Unknown ETA[K[download]  42.4% of 299.09MiB at Unknown speed ETA Unknown ETA[K[download]  42.4% of 299.09MiB at  2.59MiB/s ETA 01:06[K[download]  42.5% of 299.09MiB at  5.07MiB/s ETA 00:33[K[download]  42.5% of 299.09MiB at  3.35MiB/s ETA 00:51[K[download]  42.5% of 299.09MiB at  4.33MiB/s ETA 00:39[K[download]  42.6% of 299.09MiB at  5.44MiB/s ETA 00:31[K[download]  42.8% of 299.09MiB at  4.92MiB/s ETA 00:34[K[download]  43.1% of 299.09MiB at  4.89MiB/s ETA 00:34[K[download]  43.8% of 299.09MiB at  4.63MiB/s ETA 00:36[K[download]  45.1% of 299.09MiB at  4.03MiB/s ETA 00:40[K[download]  45.6% of 299.09MiB at  3.63MiB/s ETA 00:44[K[download]  45.6% of 299.09MiB at Unknown speed ETA Unknown ETA[K[download]  45.6% of 299.09MiB at Unknown speed ETA Unknown ETA[K[download]  45.6% of 299.09MiB at Unknown speed ETA Unknown ETA[K[download]  45.6% of 299.09MiB at  5.92MiB/s ETA 00:27[K[download]  45.6% of 299.09MiB at  3.92MiB/s ETA 00:41[K[download]  45.6% of 299.09MiB at  4.42MiB/s ETA 00:36[K[download]  45.7% of 299.09MiB at  5.11MiB/s ETA 00:31[K[download]  45.7% of 299.09MiB at  2.89MiB/s ETA 00:56[K[download]  45.8% of 299.09MiB at  5.45MiB/s ETA 00:29[K[download]  46.0% of 299.09MiB at  4.90MiB/s ETA 00:32[K[download]  46.3% of 299.09MiB at  4.76MiB/s ETA 00:33[K[download]  47.0% of 299.09MiB at  4.56MiB/s ETA 00:34[K[download]  48.3% of 299.09MiB at  4.45MiB/s ETA 00:34[K[download]  48.9% of 299.09MiB at  4.44MiB/s ETA 00:34[K[download]  48.9% of 299.09MiB at Unknown speed ETA Unknown ETA[K[download]  48.9% of 299.09MiB at Unknown speed ETA Unknown ETA[K[download]  48.9% of 299.09MiB at Unknown speed ETA Unknown ETA[K[download]  48.9% of 299.09MiB at  1.73MiB/s ETA 01:28[K[download]  48.9% of 299.09MiB at  3.42MiB/s ETA 00:44[K[download]  48.9% of 299.09MiB at  2.44MiB/s ETA 01:02[K[download]  48.9% of 299.09MiB at  4.04MiB/s ETA 00:37[K[download]  49.0% of 299.09MiB at  4.79MiB/s ETA 00:31[K[download]  49.0% of 299.09MiB at  4.34MiB/s ETA 00:35[K[download]  49.2% of 299.09MiB at  4.65MiB/s ETA 00:32[K[download]  49.5% of 299.09MiB at  4.56MiB/s ETA 00:33[K[download]  50.2% of 299.09MiB at  4.34MiB/s ETA 00:34[K[download]  51.6% of 299.09MiB at  4.34MiB/s ETA 00:33[K[download]  52.1% of 299.09MiB at  4.38MiB/s ETA 00:32[K[download]  52.1% of 299.09MiB at Unknown speed ETA Unknown ETA[K[download]  52.1% of 299.09MiB at Unknown speed ETA Unknown ETA[K[download]  52.1% of 299.09MiB at Unknown speed ETA Unknown ETA[K[download]  52.1% of 299.09MiB at  2.22MiB/s ETA 01:04[K[download]  52.1% of 299.09MiB at  4.35MiB/s ETA 00:32[K[download]  52.1% of 299.09MiB at  2.68MiB/s ETA 00:53[K[download]  52.1% of 299.09MiB at  3.56MiB/s ETA 00:40[K[download]  52.2% of 299.09MiB at  4.77MiB/s ETA 00:29[K[download]  52.3% of 299.09MiB at  5.27MiB/s ETA 00:27[K[download]  52.4% of 299.09MiB at  5.00MiB/s ETA 00:28[K[download]  52.8% of 299.09MiB at  4.58MiB/s ETA 00:30[K[download]  53.4% of 299.09MiB at  4.23MiB/s ETA 00:32[K[download]  54.7% of 299.09MiB at  3.92MiB/s ETA 00:34[K[download]  55.3% of 299.09MiB at  4.02MiB/s ETA 00:33[K[download]  55.3% of 299.09MiB at Unknown speed ETA Unknown ETA[K[download]  55.3% of 299.09MiB at Unknown speed ETA Unknown ETA[K[download]  55.3% of 299.09MiB at  2.39MiB/s ETA 00:56[K[download]  55.3% of 299.09MiB at  4.71MiB/s ETA 00:28[K[download]  55.3% of 299.09MiB at  3.53MiB/s ETA 00:37[K[download]  55.3% of 299.09MiB at  4.28MiB/s ETA 00:31[K[download]  55.3% of 299.09MiB at  4.96MiB/s ETA 00:26[K[download]  55.4% of 299.09MiB at  4.85MiB/s ETA 00:27[K[download]  55.5% of 299.09MiB at  5.08MiB/s ETA 00:26[K[download]  55.6% of 299.09MiB at  5.19MiB/s ETA 00:25[K[download]  56.0% of 299.09MiB at  4.61MiB/s ETA 00:28[K[download]  56.6% of 299.09MiB at  4.44MiB/s ETA 00:29[K[download]  58.0% of 299.09MiB at  4.38MiB/s ETA 00:28[K[download]  58.6% of 299.09MiB at  4.39MiB/s ETA 00:28[K[download]  58.6% of 299.09MiB at 341.81KiB/s ETA 06:12[K[download]  58.6% of 299.09MiB at 970.01KiB/s ETA 02:11[K[download]  58.6% of 299.09MiB at  2.13MiB/s ETA 00:58[K[download]  58.6% of 299.09MiB at  2.26MiB/s ETA 00:54[K[download]  58.6% of 299.09MiB at  3.50MiB/s ETA 00:35[K[download]  58.6% of 299.09MiB at  4.06MiB/s ETA 00:30[K[download]  58.6% of 299.09MiB at  2.86MiB/s ETA 00:43[K[download]  58.7% of 299.09MiB at  3.63MiB/s ETA 00:34[K[download]  58.7% of 299.09MiB at  4.26MiB/s ETA 00:28[K[download]  58.9% of 299.09MiB at  4.41MiB/s ETA 00:27[K[download]  59.2% of 299.09MiB at  4.18MiB/s ETA 00:29[K[download]  59.9% of 299.09MiB at  3.68MiB/s ETA 00:32[K[download]  61.0% of 299.09MiB at  3.78MiB/s ETA 00:30[K[download]  61.8% of 299.09MiB at  3.90MiB/s ETA 00:29[K[download]  61.8% of 299.09MiB at Unknown speed ETA Unknown ETA[K[download]  61.8% of 299.09MiB at Unknown speed ETA Unknown ETA[K[download]  61.8% of 299.09MiB at  6.09MiB/s ETA 00:18[K[download]  61.8% of 299.09MiB at  1.34MiB/s ETA 01:25[K[download]  61.8% of 299.09MiB at  1.70MiB/s ETA 01:07[K[download]  61.8% of 299.09MiB at  2.67MiB/s ETA 00:42[K[download]  61.8% of 299.09MiB at  3.45MiB/s ETA 00:33[K[download]  61.9% of 299.09MiB at  4.66MiB/s ETA 00:24[K[download]  62.0% of 299.09MiB at  4.22MiB/s ETA 00:26[K[download]  62.1% of 299.09MiB at  4.30MiB/s ETA 00:26[K[download]  62.5% of 299.09MiB at  4.66MiB/s ETA 00:24[K[download]  63.1% of 299.09MiB at  4.47MiB/s ETA 00:24[K[download]  64.5% of 299.09MiB at  4.52MiB/s ETA 00:23[K[download]  65.0% of 299.09MiB at  4.66MiB/s ETA 00:22[K[download]  65.0% of 299.09MiB at Unknown speed ETA Unknown ETA[K[download]  65.0% of 299.09MiB at Unknown speed ETA Unknown ETA[K[download]  65.0% of 299.09MiB at  3.35MiB/s ETA 00:31[K[download]  65.0% of 299.09MiB at  6.59MiB/s ETA 00:15[K[download]  65.0% of 299.09MiB at  4.43MiB/s ETA 00:23[K[download]  65.0% of 299.09MiB at  4.67MiB/s ETA 00:22[K[download]  65.0% of 299.09MiB at  5.53MiB/s ETA 00:18[K[download]  65.1% of 299.09MiB at  6.01MiB/s ETA 00:17[K[download]  65.1% of 299.09MiB at  6.21MiB/s ETA 00:16[K[download]  65.3% of 299.09MiB at  5.36MiB/s ETA 00:19[K[download]  65.6% of 299.09MiB at  4.37MiB/s ETA 00:23[K[download]  66.3% of 299.09MiB at  2.94MiB/s ETA 00:34[K[download]  67.0% of 299.09MiB at  3.00MiB/s ETA 00:32[K[download]  68.1% of 299.09MiB at  3.46MiB/s ETA 00:27[K[download]  68.3% of 299.09MiB at  3.52MiB/s ETA 00:26[K[download]  68.3% of 299.09MiB at Unknown speed ETA Unknown ETA[K[download]  68.3% of 299.09MiB at Unknown speed ETA Unknown ETA[K[download]  68.3% of 299.09MiB at  3.88MiB/s ETA 00:24[K[download]  68.3% of 299.09MiB at  7.40MiB/s ETA 00:12[K[download]  68.3% of 299.09MiB at  3.01MiB/s ETA 00:31[K[download]  68.3% of 299.09MiB at  4.00MiB/s ETA 00:23[K[download]  68.3% of 299.09MiB at  3.70MiB/s ETA 00:25[K[download]  68.4% of 299.09MiB at  4.04MiB/s ETA 00:23[K[download]  68.5% of 299.09MiB at  4.20MiB/s ETA 00:22[K[download]  68.6% of 299.09MiB at  4.58MiB/s ETA 00:20[K[download]  69.0% of 299.09MiB at  4.50MiB/s ETA 00:20[K[download]  69.6% of 299.09MiB at  4.93MiB/s ETA 00:18[K[download]  71.0% of 299.09MiB at  4.57MiB/s ETA 00:18[K[download]  71.5% of 299.09MiB at  4.55MiB/s ETA 00:18[K[download]  71.5% of 299.09MiB at Unknown speed ETA Unknown ETA[K[download]  71.5% of 299.09MiB at Unknown speed ETA Unknown ETA[K[download]  71.5% of 299.09MiB at Unknown speed ETA Unknown ETA[K[download]  71.5% of 299.09MiB at 12.36MiB/s ETA 00:06[K[download]  71.5% of 299.09MiB at  3.73MiB/s ETA 00:22[K[download]  71.5% of 299.09MiB at  3.41MiB/s ETA 00:25[K[download]  71.5% of 299.09MiB at  3.69MiB/s ETA 00:23[K[download]  71.6% of 299.09MiB at  3.66MiB/s ETA 00:23[K[download]  71.7% of 299.09MiB at  4.17MiB/s ETA 00:20[K[download]  71.8% of 299.09MiB at  4.68MiB/s ETA 00:17[K[download]  72.2% of 299.09MiB at  4.33MiB/s ETA 00:19[K[download]  72.8% of 299.09MiB at  4.42MiB/s ETA 00:18[K[download]  74.2% of 299.09MiB at  4.34MiB/s ETA 00:17[K[download]  74.7% of 299.09MiB at  4.36MiB/s ETA 00:17[K[download]  74.7% of 299.09MiB at Unknown speed ETA Unknown ETA[K[download]  74.7% of 299.09MiB at Unknown speed ETA Unknown ETA[K[download]  74.8% of 299.09MiB at Unknown speed ETA Unknown ETA[K[download]  74.8% of 299.09MiB at 13.11MiB/s ETA 00:05[K[download]  74.8% of 299.09MiB at  4.49MiB/s ETA 00:16[K[download]  74.8% of 299.09MiB at  4.76MiB/s ETA 00:15[K[download]  74.8% of 299.09MiB at  3.93MiB/s ETA 00:19[K[download]  74.8% of 299.09MiB at  5.05MiB/s ETA 00:14[K[download]  74.9% of 299.09MiB at  4.44MiB/s ETA 00:16[K[download]  75.1% of 299.09MiB at  4.81MiB/s ETA 00:15[K[download]  75.4% of 299.09MiB at  4.42MiB/s ETA 00:16[K[download]  76.1% of 299.09MiB at  4.42MiB/s ETA 00:16[K[download]  77.4% of 299.09MiB at  4.36MiB/s ETA 00:15[K[download]  78.0% of 299.09MiB at  4.35MiB/s ETA 00:15[K[download]  78.0% of 299.09MiB at Unknown speed ETA Unknown ETA[K[download]  78.0% of 299.09MiB at Unknown speed ETA Unknown ETA[K[download]  78.0% of 299.09MiB at Unknown speed ETA Unknown ETA[K[download]  78.0% of 299.09MiB at 10.62MiB/s ETA 00:06[K[download]  78.0% of 299.09MiB at  3.66MiB/s ETA 00:18[K[download]  78.0% of 299.09MiB at  4.46MiB/s ETA 00:14[K[download]  78.0% of 299.09MiB at  4.81MiB/s ETA 00:13[K[download]  78.1% of 299.09MiB at  5.46MiB/s ETA 00:12[K[download]  78.2% of 299.09MiB at  4.39MiB/s ETA 00:14[K[download]  78.3% of 299.09MiB at  4.77MiB/s ETA 00:13[K[download]  78.7% of 299.09MiB at  4.24MiB/s ETA 00:15[K[download]  79.3% of 299.09MiB at  4.40MiB/s ETA 00:14[K[download]  80.7% of 299.09MiB at  4.41MiB/s ETA 00:13[K[download]  81.3% of 299.09MiB at  4.42MiB/s ETA 00:12[K[download]  81.3% of 299.09MiB at Unknown speed ETA Unknown ETA[K[download]  81.3% of 299.09MiB at Unknown speed ETA Unknown ETA[K[download]  81.3% of 299.09MiB at  4.87MiB/s ETA 00:11[K[download]  81.3% of 299.09MiB at  3.81MiB/s ETA 00:14[K[download]  81.3% of 299.09MiB at  4.99MiB/s ETA 00:11[K[download]  81.3% of 299.09MiB at  3.47MiB/s ETA 00:16[K[download]  81.3% of 299.09MiB at  3.80MiB/s ETA 00:14[K[download]  81.4% of 299.09MiB at  4.07MiB/s ETA 00:13[K[download]  81.4% of 299.09MiB at  4.58MiB/s ETA 00:12[K[download]  81.6% of 299.09MiB at  4.98MiB/s ETA 00:11[K[download]  81.9% of 299.09MiB at  4.71MiB/s ETA 00:11[K[download]  82.6% of 299.09MiB at  4.52MiB/s ETA 00:11[K[download]  84.0% of 299.09MiB at  3.82MiB/s ETA 00:12[K[download]  84.5% of 299.09MiB at  3.65MiB/s ETA 00:12[K[download]  84.5% of 299.09MiB at Unknown speed ETA Unknown ETA[K[download]  84.5% of 299.09MiB at Unknown speed ETA Unknown ETA[K[download]  84.5% of 299.09MiB at Unknown speed ETA Unknown ETA[K[download]  84.5% of 299.09MiB at  8.18MiB/s ETA 00:05[K[download]  84.5% of 299.09MiB at  2.05MiB/s ETA 00:22[K[download]  84.5% of 299.09MiB at  2.96MiB/s ETA 00:15[K[download]  84.6% of 299.09MiB at  1.43MiB/s ETA 00:32[K[download]  84.6% of 299.09MiB at  2.17MiB/s ETA 00:21[K[download]  84.7% of 299.09MiB at  2.96MiB/s ETA 00:15[K[download]  84.9% of 299.09MiB at  3.43MiB/s ETA 00:13[K[download]  85.2% of 299.09MiB at  3.65MiB/s ETA 00:12[K[download]  85.9% of 299.09MiB at  3.88MiB/s ETA 00:10[K[download]  87.2% of 299.09MiB at  3.92MiB/s ETA 00:09[K[download]  87.9% of 299.09MiB at  3.70MiB/s ETA 00:09[K[download]  87.9% of 299.09MiB at Unknown speed ETA Unknown ETA[K[download]  87.9% of 299.09MiB at Unknown speed ETA Unknown ETA[K[download]  87.9% of 299.09MiB at Unknown speed ETA Unknown ETA[K[download]  87.9% of 299.09MiB at  9.91MiB/s ETA 00:03[K[download]  87.9% of 299.09MiB at  3.00MiB/s ETA 00:12[K[download]  87.9% of 299.09MiB at  4.25MiB/s ETA 00:08[K[download]  87.9% of 299.09MiB at  4.41MiB/s ETA 00:08[K[download]  87.9% of 299.09MiB at  5.21MiB/s ETA 00:06[K[download]  88.0% of 299.09MiB at  4.71MiB/s ETA 00:07[K[download]  88.2% of 299.09MiB at  5.37MiB/s ETA 00:06[K[download]  88.5% of 299.09MiB at  5.76MiB/s ETA 00:05[K[download]  89.2% of 299.09MiB at  5.26MiB/s ETA 00:06[K[download]  90.5% of 299.09MiB at  5.05MiB/s ETA 00:05[K[download]  91.2% of 299.09MiB at  4.88MiB/s ETA 00:05[K[download]  91.2% of 299.09MiB at Unknown speed ETA Unknown ETA[K[download]  91.2% of 299.09MiB at Unknown speed ETA Unknown ETA[K[download]  91.2% of 299.09MiB at Unknown speed ETA Unknown ETA[K[download]  91.2% of 299.09MiB at 10.63MiB/s ETA 00:02[K[download]  91.2% of 299.09MiB at  4.90MiB/s ETA 00:05[K[download]  91.2% of 299.09MiB at  4.46MiB/s ETA 00:05[K[download]  91.2% of 299.09MiB at  5.03MiB/s ETA 00:05[K[download]  91.2% of 299.09MiB at  5.74MiB/s ETA 00:04[K[download]  91.3% of 299.09MiB at  4.52MiB/s ETA 00:05[K[download]  91.5% of 299.09MiB at  4.55MiB/s ETA 00:05[K[download]  91.8% of 299.09MiB at  4.66MiB/s ETA 00:05[K[download]  92.5% of 299.09MiB at  2.53MiB/s ETA 00:08[K[download]  93.1% of 299.09MiB at  2.97MiB/s ETA 00:06[K[download]  94.2% of 299.09MiB at  3.42MiB/s ETA 00:05[K[download]  94.3% of 299.09MiB at  3.49MiB/s ETA 00:04[K[download]  94.3% of 299.09MiB at Unknown speed ETA Unknown ETA[K[download]  94.3% of 299.09MiB at Unknown speed ETA Unknown ETA[K[download]  94.3% of 299.09MiB at Unknown speed ETA Unknown ETA[K[download]  94.3% of 299.09MiB at 13.24MiB/s ETA 00:01[K[download]  94.3% of 299.09MiB at  3.95MiB/s ETA 00:04[K[download]  94.4% of 299.09MiB at  6.42MiB/s ETA 00:02[K[download]  94.4% of 299.09MiB at  5.69MiB/s ETA 00:02[K[download]  94.4% of 299.09MiB at  6.26MiB/s ETA 00:02[K[download]  94.5% of 299.09MiB at  5.31MiB/s ETA 00:03[K[download]  94.7% of 299.09MiB at  5.19MiB/s ETA 00:03[K[download]  95.0% of 299.09MiB at  5.28MiB/s ETA 00:02[K[download]  95.7% of 299.09MiB at  5.21MiB/s ETA 00:02[K[download]  97.0% of 299.09MiB at  4.64MiB/s ETA 00:01[K[download]  97.5% of 299.09MiB at  4.45MiB/s ETA 00:01[K[download]  97.5% of 299.09MiB at 647.07KiB/s ETA 00:11[K[download]  97.5% of 299.09MiB at  1.50MiB/s ETA 00:04[K[download]  97.5% of 299.09MiB at  2.95MiB/s ETA 00:02[K[download]  97.5% of 299.09MiB at  5.44MiB/s ETA 00:01[K[download]  97.5% of 299.09MiB at  1.60MiB/s ETA 00:04[K[download]  97.5% of 299.09MiB at  3.08MiB/s ETA 00:02[K[download]  97.6% of 299.09MiB at  2.26MiB/s ETA 00:03[K[download]  97.6% of 299.09MiB at  3.01MiB/s ETA 00:02[K[download]  97.7% of 299.09MiB at  2.69MiB/s ETA 00:02[K[download]  97.9% of 299.09MiB at  3.23MiB/s ETA 00:01[K[download]  98.2% of 299.09MiB at  3.19MiB/s ETA 00:01[K[download]  98.9% of 299.09MiB at  3.42MiB/s ETA 00:00[K[download] 100.0% of 299.09MiB at  3.79MiB/s ETA 00:00[K[download] 100% of 299.09MiB in 01:12
[ffmpeg] Destination: output/temp/MẮT BIẾC TRUYỆN AUDIO FULL_ NGUYỄN NHẬT ÁNH_ GIỌNG ĐỌC KIM QUYÊN #Matbiec #Victor_Vũ #Nguyennhatanh.wav
Deleting original file output/temp/MẮT BIẾC TRUYỆN AUDIO FULL_ NGUYỄN NHẬT ÁNH_ GIỌNG ĐỌC KIM QUYÊN #Matbiec #Victor_Vũ #Nguyennhatanh.NA (pass -k to keep)
